<svg width="124" height="42" viewBox="0 0 124 42" fill="none" xmlns="http://www.w3.org/2000/svg">
<path fill-rule="evenodd" clip-rule="evenodd" d="M95.0635 41.9945V37.8457H93.4897V36.7893H97.7784V37.8457H96.2046V41.9945H95.0635ZM99.7563 41.9945V36.7893H102.124C102.78 36.7893 103.284 36.9662 103.631 37.3151C103.926 37.6114 104.073 38.0129 104.073 38.5196C104.073 39.3178 103.703 39.8532 102.966 40.1304L104.23 41.9897H102.899L101.777 40.3264H100.897V41.9897H99.7563V41.9945ZM100.897 39.3178H102.053C102.329 39.3178 102.543 39.2509 102.695 39.1123C102.847 38.9785 102.923 38.7921 102.923 38.5674C102.923 38.3236 102.842 38.142 102.685 38.0129C102.528 37.8887 102.31 37.8218 102.029 37.8218H100.897V39.3178ZM105.771 41.9945L107.991 36.7559H109.042L111.262 41.9945H110.074L109.598 40.8282H107.411L106.936 41.9945H105.771ZM107.811 39.8149H109.185L108.495 38.1277L107.811 39.8149ZM113.164 41.9945V36.7893H115.185C115.993 36.7893 116.654 37.0379 117.168 37.5302C117.681 38.0225 117.938 38.6439 117.938 39.3943C117.938 40.14 117.681 40.7565 117.163 41.2536C116.649 41.7507 115.989 41.9993 115.185 41.9993H113.164V41.9945ZM114.305 40.9621H115.185C115.656 40.9621 116.031 40.8187 116.317 40.5271C116.602 40.2356 116.744 39.858 116.744 39.3943C116.744 38.9355 116.602 38.5578 116.312 38.2663C116.022 37.9747 115.646 37.8265 115.185 37.8265H114.305V40.9621ZM120.058 41.9945V36.7893H123.962V37.8074H121.19V38.8637H123.629V39.8818H121.19V40.9764H124V41.9945H120.058Z" fill="white"/>
<path fill-rule="evenodd" clip-rule="evenodd" d="M17.1736 31.9763L7.64065 22.3929H13.4603L22.9932 31.9763H17.1736ZM28.8129 31.9763H30.1014L39.6343 22.3929H36.7245L35.2696 23.8555L33.8147 22.3929H30.9049L33.8147 25.3181L32.3598 26.7807L27.9951 22.3929H25.0853L30.9049 28.2433L29.45 29.7059L22.1755 22.3929H19.2656L23.8443 26.9958L28.8129 31.9763ZM42.5489 22.3929H45.4587L35.9258 31.9763H33.0159L42.5489 22.3929ZM48.3638 22.3929H50.5129V20.2324L60.0601 10.6346V13.5598L41.7359 31.9811H38.826L48.3638 22.3929ZM50.5129 17.3072L60.0601 7.70934V4.78411L50.5129 14.3819V17.3072ZM50.5129 11.4567L60.0601 1.85887V0.0234375H58.976L58.5434 0.4584L58.1107 0.0234375H55.2009L57.0885 1.92101L55.6336 3.38363L52.2911 0.0234375H49.3813L54.1787 4.84624L52.7238 6.30886L46.4715 0.0234375H43.5616L51.2689 7.77148L49.814 9.23409L40.6518 0.0234375H37.742L47.275 9.60692H50.5081V11.4567H50.5129ZM60.0601 16.4803L44.6457 31.9763H47.5555L60.0601 19.4055V16.4803ZM60.0601 22.3307L50.4653 31.9763H53.3751L60.0649 25.2512V22.3307H60.0601ZM60.0601 28.1812L56.2802 31.9811H59.19L60.0601 31.1064V28.1812ZM44.3747 9.61169H41.4649L31.9319 0.0282147H34.8417L44.3747 9.61169ZM38.5551 9.61169H35.6452L26.1123 0.0282147H29.0221L38.5551 9.61169ZM32.7402 9.61169L23.2072 0.0282147H20.2974L29.8304 9.61169H32.7402ZM28.2661 10.9596L18.7284 1.37612V4.30135L28.2613 13.8848V10.9596H28.2661ZM28.2661 16.8101L18.7331 7.22658V10.1518L27.1535 18.6168H28.2661V16.8101ZM24.2437 18.6168H21.3339L18.7284 15.9975V13.0723L24.2437 18.6168ZM9.53297 31.9763H12.4L2.86701 22.3929H0L9.53297 31.9763Z" fill="white"/>
<path fill-rule="evenodd" clip-rule="evenodd" d="M110.383 29.4483V26.8146L105.267 31.9577H107.887L110.383 29.4483ZM110.383 24.1857L102.647 31.9625H100.85V31.1403L110.383 21.5568V24.1857ZM110.383 18.9184L100.85 28.5019V25.8682L110.383 16.2847V18.9184ZM110.383 13.6559V11.0222L100.85 20.6057V23.2393L110.383 13.6559ZM110.383 8.39331L100.85 17.9768L87.3515 31.5418L86.0393 30.2274L110.378 5.75965V8.39331H110.383ZM110.383 3.13076L84.7318 28.9177L83.4195 27.6033L110.383 0.497102V3.13076ZM108.234 0.0239004H105.609L104.354 1.28576L104.359 1.29055L103.051 2.60499L103.046 2.60021L101.739 3.91465L100.431 5.22909L99.1239 6.54353L97.8164 7.85797L96.5089 9.17242L95.2014 10.4869L93.8939 11.8013L92.5863 13.1157L91.2788 14.4302L89.9713 15.7446L88.6638 17.0591L87.3563 18.3735C81.2371 12.2745 75.156 6.13247 69.0701 0H66.4598L86.044 19.688L84.7365 21.0024L64.306 0.46364V3.09731L83.429 22.3216L82.1215 23.6361L64.306 5.72619V8.35985L73.839 17.9433L82.1262 26.2602L108.234 0.0239004ZM64.287 11.0174L73.82 20.6009V23.2346L64.287 13.6511V11.0174ZM64.287 16.28L73.82 25.8634V28.4971L64.287 18.9136V16.28ZM64.287 21.5473L73.82 31.1308V31.9816H72.0465L64.287 24.181V21.5473ZM64.287 26.8098V29.4435L66.8117 31.9816H69.4314L64.287 26.8098Z" fill="white"/>
<path fill-rule="evenodd" clip-rule="evenodd" d="M124 2.34682V6.8924L123.192 6.07984L121.737 7.54245L124 9.81763V12.7429L120.282 9.00507L118.827 10.4677L123.995 15.6633V18.5885L117.372 11.9303L115.917 13.3929L123.995 21.5138V24.439L114.462 14.8555V11.9303L124 2.34682ZM114.462 9.00985L123.382 0.0429688H120.472L114.462 6.08462V9.00985ZM114.462 3.15939L117.562 0.0429688H114.652L114.462 0.234157V3.15939ZM124 27.3642L114.467 17.7808V20.706L124 30.2895V27.3642ZM122.769 31.9767L114.462 23.6264V26.5517L119.859 31.9767H122.769ZM116.949 31.9767H114.462V29.4769L116.949 31.9767Z" fill="white"/>
</svg>
